qk2e - QK Box 10.6
…
Data:

caballes_length <- read_csv("data/caballes_length.csv")
caballes_length

# A tibble: 270 × 4
   diet    female   jar length
   <chr>    <dbl> <dbl>  <dbl>
 1 starved      1     1  0.638
 2 starved      1     1  0.533
 3 starved      1     1  0.476
 4 starved      1     1  0.359
 5 starved      1     1  0.354
 6 starved      1     1  0.576
 7 starved      1     1  0.742
 8 starved      1     1  0.495
 9 starved      1     1  0.803
10 starved      1     1  0.493
# ℹ 260 more rows
…
